<?xml version="1.0" encoding="UTF-8" standalone="no"?>
<svg
   xmlns:dc="http://purl.org/dc/elements/1.1/"
   xmlns:cc="http://creativecommons.org/ns#"
   xmlns:rdf="http://www.w3.org/1999/02/22-rdf-syntax-ns#"
   xmlns:svg="http://www.w3.org/2000/svg"
   xmlns="http://www.w3.org/2000/svg"
   xmlns:sodipodi="http://sodipodi.sourceforge.net/DTD/sodipodi-0.dtd"
   xmlns:inkscape="http://www.inkscape.org/namespaces/inkscape"
   inkscape:export-ydpi="90.392334"
   inkscape:export-xdpi="90.392334"
   inkscape:export-filename="/tmp/guide-tools-icon.png"
   sodipodi:docname="guide_tools_icon.svg"
   inkscape:version="1.0 (e6d8ec3f2a, 2020-05-31)"
   id="svg8"
   version="1.1"
   viewBox="0 0 84.299202 84.299179"
   height="84.299179mm"
   width="84.299202mm">
  <defs
     id="defs2">
    <clipPath
       id="clipPath1204"
       clipPathUnits="userSpaceOnUse">
      <rect
         style="font-variation-settings:normal;opacity:1;vector-effect:none;fill:#000000;fill-opacity:1;stroke:none;stroke-width:2.324;stroke-linecap:butt;stroke-linejoin:miter;stroke-miterlimit:4;stroke-dasharray:none;stroke-dashoffset:19.9188;stroke-opacity:1;paint-order:stroke markers fill;stop-color:#000000;stop-opacity:1"
         id="rect1206"
         width="84.299202"
         height="84.299179"
         x="66.278084"
         y="59.157326" />
    </clipPath>
  </defs>
  <sodipodi:namedview
     inkscape:pagecheckerboard="false"
     inkscape:window-maximized="1"
     inkscape:window-y="0"
     inkscape:window-x="0"
     inkscape:window-height="990"
     inkscape:window-width="1680"
     inkscape:snap-object-midpoints="true"
     inkscape:snap-intersection-paths="true"
     inkscape:snap-bbox-midpoints="true"
     inkscape:bbox-paths="true"
     inkscape:snap-bbox="true"
     inkscape:snap-global="true"
     inkscape:guide-bbox="true"
     showguides="true"
     showgrid="false"
     inkscape:document-rotation="0"
     inkscape:current-layer="g1132"
     inkscape:document-units="mm"
     inkscape:cy="201.57681"
     inkscape:cx="204.58027"
     inkscape:zoom="0.98994949"
     inkscape:pageshadow="2"
     inkscape:pageopacity="0.0"
     borderopacity="1.0"
     bordercolor="#666666"
     pagecolor="#ffffff"
     id="base" />
  <metadata
     id="metadata5">
    <rdf:RDF>
      <cc:Work
         rdf:about="">
        <dc:format>image/svg+xml</dc:format>
        <dc:type
           rdf:resource="http://purl.org/dc/dcmitype/StillImage" />
        <dc:title></dc:title>
      </cc:Work>
    </rdf:RDF>
  </metadata>
  <g
     transform="translate(-66.278084,-59.157326)"
     id="layer1"
     inkscape:groupmode="layer"
     inkscape:label="Layer 1">
    <g
       transform="translate(-0.2837665)"
       id="g850" />
    <g
       id="g876"
       transform="rotate(-45,108.51255,101.70646)" />
    <g
       clip-path="url(#clipPath1204)"
       id="g1202">
      <rect
         style="font-variation-settings:normal;opacity:1;vector-effect:none;fill:#bfbfbf;fill-opacity:1;stroke:none;stroke-width:2.324;stroke-linecap:butt;stroke-linejoin:miter;stroke-miterlimit:4;stroke-dasharray:none;stroke-dashoffset:19.9188;stroke-opacity:1;paint-order:stroke markers fill;stop-color:#000000;stop-opacity:1"
         id="rect1177"
         width="84.299202"
         height="84.299179"
         x="66.278084"
         y="59.157326" />
      <g
         id="g1132"
         clip-path="none"
         style="opacity:1;fill:#000000">
        <g
           id="g1096"
           transform="translate(0,0.66145835)"
           style="fill:#000000">
          <path
             style="fill:#6a6a6a;stroke:#6a6a6a;stroke-width:2.323;stroke-linecap:round;stroke-linejoin:miter;stroke-miterlimit:4;stroke-dasharray:none;stroke-dashoffset:1.3944;stroke-opacity:1;paint-order:stroke markers fill;stop-color:#000000"
             d="M 83.833366,75.956664 H 136.08301 V 128.2063 H 83.833366 Z"
             id="path836" />
          <path
             style="fill:#ffffff;stroke:#969696;stroke-width:2.324;stroke-linecap:round;stroke-linejoin:miter;stroke-miterlimit:4;stroke-dasharray:none;stroke-dashoffset:1.3944;stroke-opacity:1;paint-order:normal;stop-color:#000000"
             d="M 82.234666,74.357964 H 134.5067 V 126.62999 H 82.234666 Z"
             id="rect10" />
        </g>
        <g
           id="g1112"
           style="fill:#000000">
          <path
             id="path1039"
             d="M 73.299145,16.50519 V 185.91377"
             style="font-variation-settings:normal;opacity:0.75;vector-effect:none;fill:#000000;fill-opacity:1;stroke:#ff9900;stroke-width:2.324;stroke-linecap:butt;stroke-linejoin:miter;stroke-miterlimit:4;stroke-dasharray:none;stroke-dashoffset:5.27017;stroke-opacity:1;paint-order:stroke markers fill;stop-color:#000000;stop-opacity:1" />
          <path
             id="path1041"
             d="M 143.44223,16.814067 V 186.22265"
             style="font-variation-settings:normal;opacity:0.75;vector-effect:none;fill:#000000;fill-opacity:1;stroke:#ff9900;stroke-width:2.324;stroke-linecap:butt;stroke-linejoin:miter;stroke-miterlimit:4;stroke-dasharray:none;stroke-dashoffset:5.27017;stroke-opacity:1;paint-order:stroke markers fill;stop-color:#000000;stop-opacity:1" />
          <path
             id="path1043"
             d="M 23.51195,136.43545 H 192.92053"
             style="font-variation-settings:normal;opacity:0.75;vector-effect:none;fill:#000000;fill-opacity:1;stroke:#ff9900;stroke-width:2.324;stroke-linecap:butt;stroke-linejoin:miter;stroke-miterlimit:4;stroke-dasharray:none;stroke-dashoffset:5.27017;stroke-opacity:1;paint-order:stroke markers fill;stop-color:#000000;stop-opacity:1" />
          <path
             id="path1045"
             d="M 23.820828,66.292368 H 193.22941"
             style="font-variation-settings:normal;opacity:0.75;vector-effect:none;fill:#000000;fill-opacity:1;stroke:#ff9900;stroke-width:2.324;stroke-linecap:butt;stroke-linejoin:miter;stroke-miterlimit:4;stroke-dasharray:none;stroke-dashoffset:5.27017;stroke-opacity:1;paint-order:stroke markers fill;stop-color:#000000;stop-opacity:1" />
          <path
             style="opacity:0.75;fill:#000000;stroke:#3366cc;stroke-width:2.324;stroke-linecap:butt;stroke-linejoin:miter;stroke-miterlimit:4;stroke-dasharray:none;stroke-dashoffset:5.27017;stroke-opacity:1;paint-order:stroke markers fill;stop-color:#000000"
             d="m 89.742429,56.2912 v 89.98137"
             id="path925" />
          <path
             style="opacity:0.75;fill:#000000;stroke:#3366cc;stroke-width:2.324;stroke-linecap:butt;stroke-linejoin:miter;stroke-miterlimit:4;stroke-dasharray:none;stroke-dashoffset:5.27017;stroke-opacity:1;paint-order:stroke markers fill;stop-color:#000000"
             d="m 126.99893,56.45526 v 89.98137"
             id="path923" />
          <path
             style="opacity:0.75;fill:#000000;stroke:#3366cc;stroke-width:2.324;stroke-linecap:butt;stroke-linejoin:miter;stroke-miterlimit:4;stroke-dasharray:none;stroke-dashoffset:5.27017;stroke-opacity:1;paint-order:stroke markers fill;stop-color:#000000"
             d="M 63.297959,119.99216 H 153.27933"
             id="path921" />
          <path
             style="opacity:0.75;fill:#000000;stroke:#3366cc;stroke-width:2.324;stroke-linecap:butt;stroke-linejoin:miter;stroke-miterlimit:4;stroke-dasharray:none;stroke-dashoffset:5.27017;stroke-opacity:1;paint-order:stroke markers fill;stop-color:#000000"
             d="m 63.46202,82.73566 h 89.98137"
             id="path854" />
          <path
             style="opacity:0.75;fill:none;stroke:#cc3333;stroke-width:1.124;stroke-linecap:round;stroke-linejoin:miter;stroke-miterlimit:4;stroke-dasharray:none;stroke-dashoffset:5.27017;stroke-opacity:1;paint-order:stroke markers fill;stop-color:#000000"
             d="m 129.79961,82.735657 a 2.8006772,2.8006772 0 0 1 -2.80068,2.800677 2.8006772,2.8006772 0 0 1 -2.80068,-2.800677 2.8006772,2.8006772 0 0 1 2.80068,-2.800678 2.8006772,2.8006772 0 0 1 2.80068,2.800678"
             id="path858" />
          <path
             style="opacity:0.75;fill:none;stroke:#cc3333;stroke-width:1.124;stroke-linecap:round;stroke-linejoin:miter;stroke-miterlimit:4;stroke-dasharray:none;stroke-dashoffset:5.27017;stroke-opacity:1;paint-order:stroke markers fill;stop-color:#000000"
             d="m 92.543109,119.99216 a 2.8006772,2.8006772 0 0 1 -2.800677,2.80068 2.8006772,2.8006772 0 0 1 -2.800678,-2.80068 2.8006772,2.8006772 0 0 1 2.800678,-2.80068 2.8006772,2.8006772 0 0 1 2.800677,2.80068"
             id="circle863" />
          <path
             style="opacity:0.75;fill:#000000;stroke:#669900;stroke-width:2.324;stroke-linecap:butt;stroke-linejoin:miter;stroke-miterlimit:4;stroke-dasharray:none;stroke-dashoffset:5.27017;stroke-opacity:1;paint-order:stroke markers fill;stop-color:#000000"
             d="M 66.111484,58.990725 150.62988,143.5091"
             id="path932"
             sodipodi:nodetypes="cc" />
          <path
             style="opacity:0.75;fill:none;stroke:#cc3333;stroke-width:1.124;stroke-linecap:round;stroke-linejoin:miter;stroke-miterlimit:4;stroke-dasharray:none;stroke-dashoffset:5.27017;stroke-opacity:1;paint-order:stroke markers fill;stop-color:#000000"
             d="m 97.423551,86.34078 a 2.8015601,2.8015601 0 0 1 10e-7,3.962002 2.8015601,2.8015601 0 0 1 -3.962005,0 2.8015601,2.8015601 0 0 1 0,-3.962003 2.8015601,2.8015601 0 0 1 3.962004,10e-7"
             id="circle882" />
          <path
             id="circle882-7"
             d="m 75.280147,134.45445 a 2.8015602,2.8015602 0 0 1 10e-7,3.962 2.8015602,2.8015602 0 0 1 -3.962005,0 2.8015602,2.8015602 0 0 1 0,-3.962 2.8015602,2.8015602 0 0 1 3.962004,0"
             style="opacity:0.75;fill:none;stroke:#cc3333;stroke-width:1.124;stroke-linecap:round;stroke-linejoin:miter;stroke-miterlimit:4;stroke-dasharray:none;stroke-dashoffset:5.27017;stroke-opacity:1;paint-order:stroke markers fill;stop-color:#000000" />
          <path
             id="circle882-3"
             d="m 145.42323,64.311367 a 2.8015602,2.8015602 0 0 1 0,3.962003 2.8015602,2.8015602 0 0 1 -3.962,0 2.8015602,2.8015602 0 0 1 0,-3.962004 2.8015602,2.8015602 0 0 1 3.962,10e-7"
             style="opacity:0.75;fill:none;stroke:#cc3333;stroke-width:1.124;stroke-linecap:round;stroke-linejoin:miter;stroke-miterlimit:4;stroke-dasharray:none;stroke-dashoffset:5.27017;stroke-opacity:1;paint-order:stroke markers fill;stop-color:#000000" />
        </g>
      </g>
    </g>
  </g>
</svg>
